<?xml version="1.0" encoding="UTF-8" standalone="no"?>
<!-- Created with Inkscape (http://www.inkscape.org/) -->

<svg
   xmlns:dc="http://purl.org/dc/elements/1.1/"
   xmlns:cc="http://creativecommons.org/ns#"
   xmlns:rdf="http://www.w3.org/1999/02/22-rdf-syntax-ns#"
   xmlns:svg="http://www.w3.org/2000/svg"
   xmlns="http://www.w3.org/2000/svg"
   xmlns:sodipodi="http://sodipodi.sourceforge.net/DTD/sodipodi-0.dtd"
   xmlns:inkscape="http://www.inkscape.org/namespaces/inkscape"
   width="73.236259mm"
   height="69.466454mm"
   viewBox="0 0 73.236259 69.466454"
   version="1.1"
   id="svg8"
   inkscape:version="0.92.4 (5da689c313, 2019-01-14)"
   sodipodi:docname="logo.svg"
   inkscape:export-filename="C:\Dev\Python\mdToHtml\logo.png"
   inkscape:export-xdpi="72"
   inkscape:export-ydpi="72">
  <defs
     id="defs2">
    <inkscape:perspective
       sodipodi:type="inkscape:persp3d"
       inkscape:vp_x="0 : 148.49999 : 1"
       inkscape:vp_y="0 : 999.99994 : 0"
       inkscape:vp_z="210 : 148.49999 : 1"
       inkscape:persp3d-origin="105 : 98.999994 : 1"
       id="perspective815" />
  </defs>
  <sodipodi:namedview
     id="base"
     pagecolor="#ffffff"
     bordercolor="#666666"
     borderopacity="1.0"
     inkscape:pageopacity="0.0"
     inkscape:pageshadow="2"
     inkscape:zoom="0.98994949"
     inkscape:cx="96.382441"
     inkscape:cy="143.33446"
     inkscape:document-units="mm"
     inkscape:current-layer="g870"
     showgrid="false"
     inkscape:snap-global="false"
     fit-margin-top="0"
     fit-margin-left="0"
     fit-margin-right="0"
     fit-margin-bottom="0"
     inkscape:window-width="1366"
     inkscape:window-height="705"
     inkscape:window-x="-8"
     inkscape:window-y="-8"
     inkscape:window-maximized="1" />
  <metadata
     id="metadata5">
    <rdf:RDF>
      <cc:Work
         rdf:about="">
        <dc:format>image/svg+xml</dc:format>
        <dc:type
           rdf:resource="http://purl.org/dc/dcmitype/StillImage" />
        <dc:title />
      </cc:Work>
    </rdf:RDF>
  </metadata>
  <g
     inkscape:label="Calque 1"
     inkscape:groupmode="layer"
     id="layer1"
     transform="translate(-25.369965,-33.969151)">
    <g
       id="g849"
       style="fill:#2f4f4f;stroke:none"
       transform="translate(-0.18898809,-0.75595238)" />
    <g
       id="g870"
       transform="translate(0,-0.56696429)">
      <path
         sodipodi:type="star"
         style="opacity:1;fill:#008080;fill-opacity:1;stroke:none;stroke-width:0.10698546;stroke-linecap:square;stroke-miterlimit:4;stroke-dasharray:none;stroke-dashoffset:10.01574802;stroke-opacity:1"
         id="path833"
         sodipodi:sides="6"
         sodipodi:cx="61.988094"
         sodipodi:cy="68.702377"
         sodipodi:r1="36.61813"
         sodipodi:r2="31.712231"
         sodipodi:arg1="1.0471976"
         sodipodi:arg2="1.5707963"
         inkscape:flatsided="true"
         inkscape:rounded="0.22"
         inkscape:randomized="0"
         d="m 80.297158,100.41461 c -6.976691,4.02799 -29.64144,4.02799 -36.61813,0 -6.976691,-4.027998 -18.309064,-23.656246 -18.309063,-31.712234 0,-8.055989 11.332375,-27.684236 18.309066,-31.71223 6.976691,-4.027994 29.641439,-4.027993 36.61813,2e-6 6.97669,4.027994 18.309063,23.656243 18.309063,31.712231 0,8.055989 -11.332375,27.684236 -18.309066,31.712231 z" />
      <path
         d="m 76.665114,95.00228 c -6.145362,3.548026 -26.109422,3.548025 -32.254784,-2e-6 -6.145361,-3.548026 -16.12739,-20.83741 -16.12739,-27.933462 0,-7.096053 9.982031,-24.385436 16.127393,-27.933462 6.145362,-3.548026 26.109422,-3.548025 32.254784,2e-6 6.145361,3.548026 16.127391,20.83741 16.12739,27.933463 0,7.096052 -9.982031,24.385435 -16.127393,27.933461 z"
         inkscape:randomized="0"
         inkscape:rounded="0.22"
         inkscape:flatsided="true"
         sodipodi:arg2="1.5707963"
         sodipodi:arg1="1.0471976"
         sodipodi:r2="27.933462"
         sodipodi:r1="32.254784"
         sodipodi:cy="67.068817"
         sodipodi:cx="60.537724"
         sodipodi:sides="6"
         id="path831"
         style="opacity:1;fill:#40e0d0;fill-opacity:1;stroke:none;stroke-width:0.09423728;stroke-linecap:square;stroke-miterlimit:4;stroke-dasharray:none;stroke-dashoffset:10.01574802;stroke-opacity:1"
         sodipodi:type="star" />
      <g
         id="g843"
         transform="translate(-0.92469834,0.13363476)">
        <text
           transform="scale(0.91005731,1.0988319)"
           id="text837"
           y="51.347679"
           x="49.662003"
           style="font-style:normal;font-weight:normal;font-size:8.91772175px;line-height:1.25;font-family:sans-serif;letter-spacing:0px;word-spacing:0px;fill:#2f4f4f;fill-opacity:1;stroke:none;stroke-width:0.66882914"
           xml:space="preserve"><tspan
             dy="0 0 0 0"
             style="font-style:normal;font-variant:normal;font-weight:normal;font-stretch:normal;font-size:17.8354435px;font-family:'36 days ago Thick BRK';-inkscape-font-specification:'36 days ago Thick BRK';fill:#2f4f4f;stroke:none;stroke-width:0.66882914"
             y="51.347679"
             x="49.662003"
             id="tspan835"
             sodipodi:role="line">Mark</tspan></text>
        <g
           id="text841"
           style="font-style:normal;font-weight:normal;font-size:8.83730507px;line-height:1.25;font-family:sans-serif;letter-spacing:0px;word-spacing:0px;fill:#2f4f4f;fill-opacity:1;stroke:none;stroke-width:0.66279793"
           aria-label="down">
          <path
             sodipodi:nodetypes="ccccsscccsscssssccccsccscscscccsscccccscccss"
             inkscape:connector-curvature="0"
             id="path824"
             style="font-style:normal;font-variant:normal;font-weight:normal;font-stretch:normal;font-size:17.67461014px;font-family:'36 days ago Thick BRK';-inkscape-font-specification:'36 days ago Thick BRK';fill:#2f4f4f;stroke:none;stroke-width:0.66279793"
             d="m 50.603857,65.896355 2.26235,-0.565587 -0.636286,-0.618612 c -0.09427,-0.117831 -0.442439,-0.365275 -0.572053,-0.742333 -0.106047,-0.365275 -0.159071,-0.742334 -0.159071,-1.131175 v -7.069844 c 0,-0.223879 -0.01767,-0.453649 -0.05302,-0.68931 -0.155965,-2.998407 -2.269439,-1.742645 -2.285457,0.68931 v 1.80281 c -0.412408,-0.106048 -0.78346,-0.159072 -1.207651,-0.159072 -0.600937,0 -1.184199,0.09427 -1.749786,0.282794 -0.565587,0.188529 -0.983886,0.418299 -1.254897,0.68931 -0.259228,0.259227 -0.453649,0.61272 -0.583263,1.060477 -0.129613,0.447757 -0.19442,0.907296 -0.19442,1.378619 v 2.014906 c 0,0.223878 0.01767,0.453648 0.05302,0.689309 0.03535,0.235662 0.08248,0.465432 0.141396,0.68931 0.0707,0.223879 0.15318,0.430083 0.247445,0.618612 0.09427,0.188529 0.206204,0.341708 0.335818,0.459539 0.247444,0.259228 0.665743,0.483107 1.254897,0.671636 0.565587,0.188529 1.148849,0.282793 1.749786,0.282793 0.895514,0 1.708546,-0.188529 2.439096,-0.565587 z m -1.396294,-3.057707 c 0,0.388841 -0.05891,0.7659 -0.176746,1.131175 -0.106048,0.388841 -0.206204,0.630394 -0.300469,0.724659 -0.09427,0.09427 -0.223878,0.170855 -0.388841,0.22977 -0.15318,0.04713 -0.282794,0.0707 -0.388842,0.0707 -0.09427,0 -0.22977,-0.02946 -0.406516,-0.08837 -0.164963,-0.05891 -0.282793,-0.12372 -0.353492,-0.194421 -0.106047,-0.106047 -0.223878,-0.353492 -0.353492,-0.742333 -0.106048,-0.365275 -0.159072,-0.742334 -0.159072,-1.131175 v -2.014906 c 0,-0.188529 0.01178,-0.38295 0.03535,-0.583262 0.03535,-0.200312 0.07659,-0.38295 0.123722,-0.547913 0.05891,-0.176746 0.117829,-0.324034 0.176746,-0.441865 0.05891,-0.129614 0.117829,-0.223879 0.176746,-0.282794 0.0707,-0.08248 0.188529,-0.147288 0.353492,-0.194421 0.176746,-0.05891 0.312251,-0.08837 0.406516,-0.08837 0.117831,0 0.253336,0.02946 0.406516,0.08837 0.164963,0.04713 0.294577,0.123723 0.388842,0.22977 0.09427,0.09427 0.194421,0.318143 0.300468,0.671635 0.106048,0.353493 0.159072,0.736443 0.159072,1.14885 z" />
          <path
             id="path826"
             style="font-style:normal;font-variant:normal;font-weight:normal;font-stretch:normal;font-size:17.67461014px;font-family:'36 days ago Thick BRK';-inkscape-font-specification:'36 days ago Thick BRK';fill:#2f4f4f;stroke:none;stroke-width:0.66279793"
             d="m 60.692461,60.823742 q 0,-0.68931 -0.212095,-1.378619 -0.194421,-0.68931 -0.547913,-1.042802 -0.212096,-0.212096 -0.547913,-0.388842 -0.335818,-0.176746 -0.742334,-0.300468 -0.406516,-0.141397 -0.866056,-0.212096 -0.441865,-0.08837 -0.866056,-0.08837 -0.441865,0 -0.901405,0.08837 -0.441865,0.0707 -0.848381,0.212096 -0.406516,0.123722 -0.742334,0.300468 -0.318143,0.176746 -0.530238,0.388842 -0.371167,0.353492 -0.583262,1.060476 -0.194421,0.68931 -0.194421,1.360945 v 2.014906 q 0,0.689309 0.194421,1.378619 0.212095,0.68931 0.600937,1.078151 0.371166,0.388842 1.254897,0.671636 0.848381,0.282793 1.749786,0.282793 0.441866,0 0.883731,-0.0707 0.45954,-0.0707 0.848381,-0.194421 0.406516,-0.141397 0.742334,-0.318143 0.335817,-0.176746 0.547913,-0.388841 0.176746,-0.176746 0.318143,-0.45954 0.141397,-0.282794 0.22977,-0.618611 0.106047,-0.335818 0.159071,-0.68931 0.05302,-0.353492 0.05302,-0.671635 z m -2.527469,0 v 2.014906 q 0,0.282793 -0.05302,0.583262 -0.03535,0.300468 -0.106048,0.565587 -0.0707,0.247445 -0.159071,0.441866 -0.08837,0.19442 -0.159072,0.265119 -0.141397,0.141397 -0.388841,0.22977 -0.22977,0.0707 -0.388842,0.0707 -0.141396,0 -0.406516,-0.08837 -0.265119,-0.08837 -0.371166,-0.194421 -0.141397,-0.176746 -0.335818,-0.742333 -0.159072,-0.547913 -0.159072,-1.131175 v -2.014906 q 0,-0.565587 0.159072,-1.131175 0.194421,-0.583262 0.318143,-0.706984 0.141397,-0.141397 0.388841,-0.212096 0.26512,-0.08837 0.406516,-0.08837 0.176746,0 0.406516,0.08837 0.247445,0.0707 0.371167,0.212096 0.141397,0.141397 0.300469,0.706984 0.176746,0.530238 0.176746,1.131175 z"
             inkscape:connector-curvature="0" />
          <path
             id="path828"
             style="font-style:normal;font-variant:normal;font-weight:normal;font-stretch:normal;font-size:17.67461014px;font-family:'36 days ago Thick BRK';-inkscape-font-specification:'36 days ago Thick BRK';fill:#2f4f4f;stroke:none;stroke-width:0.66279793"
             d="m 71.83355,57.412542 h -2.527469 v 5.426106 q 0,0.600936 -0.176746,1.131175 -0.159072,0.565587 -0.318143,0.742333 l -0.141397,0.106048 -0.123723,-0.106048 q -0.19442,-0.19442 -0.353492,-0.724659 -0.141397,-0.530238 -0.141397,-1.148849 v -5.426106 h -2.527469 v 5.426106 q 0,0.600936 -0.176746,1.131175 -0.159072,0.565587 -0.318143,0.742333 l -0.141397,0.106048 -0.123722,-0.106048 Q 64.604634,64.553085 64.410214,63.969823 64.251142,63.42191 64.251142,62.838648 v -5.426106 h -2.509795 v 5.426106 q 0,0.335817 0.05302,0.689309 0.05302,0.353493 0.141397,0.68931 0.106048,0.335818 0.247445,0.618612 0.141397,0.282793 0.335817,0.459539 0.371167,0.371167 0.989778,0.671636 0.636286,0.282793 1.37862,0.282793 0.512564,0 1.007453,-0.159071 0.512564,-0.176746 0.88373,-0.424191 0.441866,0.282794 0.883731,0.441866 0.45954,0.141396 1.007453,0.141396 0.742333,0 1.431643,-0.318143 0.282794,-0.123722 0.512564,-0.282793 0.247444,-0.176746 0.45954,-0.371167 0.176746,-0.176746 0.318143,-0.45954 0.141396,-0.282794 0.22977,-0.618611 0.106047,-0.335818 0.159071,-0.68931 0.05302,-0.353492 0.05302,-0.671635 z"
             inkscape:connector-curvature="0" />
          <path
             id="path830"
             style="font-style:normal;font-variant:normal;font-weight:normal;font-stretch:normal;font-size:17.67461014px;font-family:'36 days ago Thick BRK';-inkscape-font-specification:'36 days ago Thick BRK';fill:#2f4f4f;stroke:none;stroke-width:0.66279793"
             d="m 81.587448,60.823742 q 0,-0.68931 -0.212095,-1.378619 -0.194421,-0.68931 -0.547913,-1.042802 -0.212096,-0.212096 -0.547913,-0.388842 -0.335818,-0.176746 -0.742334,-0.300468 -0.406516,-0.141397 -0.866056,-0.212096 -0.441865,-0.08837 -0.866056,-0.08837 -0.636286,0 -1.290246,0.159072 -0.653961,0.159071 -1.14885,0.406516 l -0.22977,-0.212095 -2.244675,0.565587 0.618611,0.636286 q 0.08837,0.08837 0.176746,0.282794 0.08837,0.176746 0.159072,0.441865 0.08837,0.247445 0.123722,0.547913 0.05302,0.300468 0.05302,0.583262 v 5.426105 h 2.509794 v -5.426105 q 0,-0.282794 0.03535,-0.583262 0.05302,-0.300468 0.123722,-0.547913 0.08837,-0.265119 0.176746,-0.441865 0.08837,-0.194421 0.176746,-0.282794 0.106048,-0.123722 0.353492,-0.194421 0.265119,-0.08837 0.406516,-0.08837 0.176746,0 0.406516,0.08837 0.247445,0.0707 0.388842,0.22977 0.141397,0.141397 0.300468,0.671635 0.159072,0.530239 0.159072,1.14885 v 5.426105 h 2.527469 z"
             inkscape:connector-curvature="0" />
        </g>
        <text
           id="text853"
           y="93.205009"
           x="43.750858"
           style="font-style:normal;font-weight:normal;font-size:8.83730507px;line-height:1.25;font-family:sans-serif;letter-spacing:0px;word-spacing:0px;fill:#2f4f4f;fill-opacity:1;stroke:none;stroke-width:0.66279793"
           xml:space="preserve"><tspan
             style="font-style:normal;font-variant:normal;font-weight:normal;font-stretch:normal;font-size:17.67461014px;font-family:'36 days ago Thick BRK';-inkscape-font-specification:'36 days ago Thick BRK';fill:#2f4f4f;stroke:none;stroke-width:0.66279793"
             y="93.205009"
             x="43.750858"
             id="tspan851"
             sodipodi:role="line">HTML</tspan></text>
        <path
           style="opacity:1;fill:#2f4f4f;fill-opacity:1;stroke:none;stroke-width:0.03092435;stroke-linecap:square;stroke-miterlimit:4;stroke-dasharray:none;stroke-dashoffset:10.01574802;stroke-opacity:1"
           id="path843"
           d="m 64.16924,68.569583 c -0.158401,1.671431 -0.570562,1.885906 -0.771468,3.687468 0.772512,0.121184 2.466582,-1.342151 2.672634,-0.538183 -0.816497,-0.988892 -2.609182,4.526282 -2.678387,4.643377 -0.356691,0.671405 -0.598269,1.911809 -1.394385,1.923519 -0.174512,-1.678329 -2.073372,-3.79835 -2.954926,-6.60439 1.150868,0.886802 1.983371,1.347452 2.557515,0.41989 0.893354,-1.443267 -0.664018,-4.611233 -0.389297,-5.977623 0.699712,1.144315 2.258659,1.301708 2.958314,2.445942 z"
           inkscape:connector-curvature="0"
           sodipodi:nodetypes="ccccccscc" />
      </g>
    </g>
  </g>
</svg>
